[
    {
        "transcript": "FAiOS-1-1-How-Does-Your-Garden-Grow?",
        "title": "How Does Your Garden Grow?",
        "lectureID": 1,
        "video": "FAiOS-1-1-How-Does-Your-Garden-Grow?.mp4",
        "duration": 0
    },
    {
        "transcript": "FAiOS-1-2-Course-Outline",
        "title": "Course Outline",
        "lectureID": 2,
        "video": "FAiOS-1-2-Course-Outline.mp4",
        "duration": 0
    },
    {
        "transcript": "FAiOS-1-3-Analytics-Let-the-Data-Drive",
        "title": "Analytics: Let the Data Drive",
        "lectureID": 3,
        "video": "FAiOS-1-3-Analytics-Let-the-Data-Drive.mp4",
        "duration": 0
    },
    {
        "transcript": "FAiOS-1-4-Check-Out-Flood-It",
        "title": "Check Out Flood-It!",
        "lectureID": 4,
        "video": "FAiOS-1-4-Check-Out-Flood-It.mp4",
        "duration": 0
    },
    {
        "transcript": "FAiOS-1-5-Download-Flood-It",
        "title": "Download Flood-It!",
        "lectureID": 5,
        "video": "FAiOS-1-5-Download-Flood-It.mp4",
        "duration": 0
    },
    {
        "transcript": "FAiOS-1-6-Demo-of-Flood-It",
        "title": "Demo of Flood-It!",
        "lectureID": 6,
        "video": "FAiOS-1-6-Demo-of-Flood-It.mp4",
        "duration": 0
    },
    {
        "transcript": "FAiOS-1-7-Measurement-Planning",
        "title": "Measurement Planning",
        "lectureID": 7,
        "video": "FAiOS-1-7-Measurement-Planning.mp4",
        "duration": 0
    },
    {
        "transcript": "FAiOS-1-8-Quiz-Goal-of-Measurement-Planning",
        "title": "Quiz: Goal of Measurement Planning",
        "lectureID": 8,
        "video": "FAiOS-1-8-Quiz-Goal-of-Measurement-Planning.mp4",
        "duration": 0
    },
    {
        "transcript": "FAiOS-1-9-Identifying-Goals",
        "title": "Identifying Goals",
        "lectureID": 9,
        "video": "FAiOS-1-9-Identifying-Goals.mp4",
        "duration": 0
    },
    {
        "transcript": "FAiOS-1-10-Quiz-Go-for-the-Goals",
        "title": "Quiz: Go for the Goals",
        "lectureID": 10,
        "video": "FAiOS-1-10-Quiz-Go-for-the-Goals.mp4",
        "duration": 0
    },
    {
        "transcript": "FAiOS-1-11-The-Plan",
        "title": "The Plan",
        "lectureID": 11,
        "video": "FAiOS-1-11-The-Plan.mp4",
        "duration": 0
    },
    {
        "transcript": "FAiOS-1-12-Meet-Goals-with-In-App-Purchases",
        "title": "Meet Goals with In-App Purchases",
        "lectureID": 12,
        "video": "FAiOS-1-12-Meet-Goals-with-In-App-Purchases.mp4",
        "duration": 0
    },
    {
        "transcript": "FAiOS-1-13-Quiz-Planning",
        "title": "Quiz: Planning",
        "lectureID": 13,
        "video": "FAiOS-1-13-Quiz-Planning.mp4",
        "duration": 0
    },
    {
        "transcript": "FAiOS-1-14-Planning---Conclusion",
        "title": "Planning - Conclusion",
        "lectureID": 14,
        "video": "FAiOS-1-14-Planning---Conclusion.mp4",
        "duration": 0
    },
    {
        "transcript": "FAiOS-1-15-Quiz-The-Plan-for-Your-Goals",
        "title": "Quiz: The Plan for Your Goals",
        "lectureID": 15,
        "video": "FAiOS-1-15-Quiz-The-Plan-for-Your-Goals.mp4",
        "duration": 0
    },
    {
        "transcript": "FAiOS-1-16-Are-We-There-Yet?",
        "title": "Are We There Yet?",
        "lectureID": 16,
        "video": "FAiOS-1-16-Are-We-There-Yet?.mp4",
        "duration": 0
    },
    {
        "transcript": "FAiOS-1-17-Quiz-KPI",
        "title": "Quiz: KPI",
        "lectureID": 17,
        "video": "FAiOS-1-17-Quiz-KPI.mp4",
        "duration": 0
    },
    {
        "transcript": "FAiOS-1-18-Quiz-KPI-for-Flood-It",
        "title": "Quiz: KPI for Flood-It!",
        "lectureID": 18,
        "video": "FAiOS-1-18-Quiz-KPI-for-Flood-It.mp4",
        "duration": 0
    },
    {
        "transcript": "FAiOS-1-19-Analytics-in-Action",
        "title": "Analytics in Action",
        "lectureID": 19,
        "video": "FAiOS-1-19-Analytics-in-Action.mp4",
        "duration": 0
    }
]