[
    {
        "transcript": "iOSPACD-3-1-Introduction",
        "title": "Introduction",
        "lectureID": 16,
        "video": "iOSPACD-3-1-Introduction.mp4",
        "duration": 81.920000000000002
    },
    {
        "transcript": "iOSPACD-3-2-About-Data-Layers",
        "title": "About Data Layers",
        "lectureID": 17,
        "video": "iOSPACD-3-2-About-Data-Layers.mp4",
        "duration": 96.129999999999995
    },
    {
        "transcript": "iOSPACD-3-3-Why-Persist-Data",
        "title": "Why Persist Data?",
        "lectureID": 18,
        "video": "iOSPACD-3-3-Why-Persist-Data.mp4",
        "duration": 64.689999999999998
    },
    {
        "transcript": "iOSPACD-3-4-Why-Apps-Close",
        "title": "Why Apps Close",
        "lectureID": 19,
        "video": "iOSPACD-3-4-Why-Apps-Close.mp4",
        "duration": 42.538333333333334
    },
    {
        "transcript": "iOSPACD-3-5-Introducing-Mooskine",
        "title": "Introducing Mooskine",
        "lectureID": 20,
        "video": "iOSPACD-3-5-Introducing-Mooskine.mp4",
        "duration": 48.296666666666667
    },
    {
        "transcript": "iOSPACD-3-6-The-Existing-Model",
        "title": "The Existing Model",
        "lectureID": 21,
        "video": "iOSPACD-3-6-The-Existing-Model.mp4",
        "duration": 90.650000000000006
    },
    {
        "transcript": "iOSPACD-3-7-Adding-a-Core-Data-Model",
        "title": "Adding a Core Data Model",
        "lectureID": 22,
        "video": "iOSPACD-3-7-Adding-a-Core-Data-Model.mp4",
        "duration": 122.88
    },
    {
        "transcript": "iOSPACD-3-8-Entities",
        "title": "Entities",
        "lectureID": 23,
        "video": "iOSPACD-3-8-Entities.mp4",
        "duration": 178.65333333333334
    },
    {
        "transcript": "iOSPACD-3-9-Attributes",
        "title": "Attributes",
        "lectureID": 24,
        "video": "iOSPACD-3-9-Attributes.mp4",
        "duration": 235.125
    },
    {
        "transcript": "iOSPACD-3-10-Relationships",
        "title": "Relationships",
        "lectureID": 25,
        "video": "iOSPACD-3-10-Relationships.mp4",
        "duration": 208.74666666666667
    },
    {
        "transcript": "iOSPACD-3-11-Code-Generation",
        "title": "Code Generation",
        "lectureID": 26,
        "video": "iOSPACD-3-11-Code-Generation.mp4",
        "duration": 348.94833333333332
    },
    {
        "transcript": "iOSPACD-3-12-Summary",
        "title": "Summary",
        "lectureID": 27,
        "video": "iOSPACD-3-12-Summary.mp4",
        "duration": 33.899999999999999
    }
]