[
    {
        "transcript": "OCFSD-2-1-Introduction",
        "title": "Introduction",
        "lectureID": 17,
        "video": "OCFSD-2-1-Introduction.mp4",
        "duration": 20.666
    },
    {
        "transcript": "OCFSD-2-2-Class-Declaration",
        "title": "Class Declaration",
        "lectureID": 18,
        "video": "OCFSD-2-2-Class-Declaration.mp4",
        "duration": 137.57900000000001
    },
    {
        "transcript": "OCFSD-2-3-Readwrite-Readonly-and-Copy",
        "title": "Readwrite, Readonly, and Copy",
        "lectureID": 19,
        "video": "OCFSD-2-3-Readwrite-Readonly-and-Copy.mp4",
        "duration": 173.036
    },
    {
        "transcript": "OCFSD-2-4-Class-Initialization",
        "title": "Class Initialization",
        "lectureID": 20,
        "video": "OCFSD-2-4-Class-Initialization.mp4",
        "duration": 183.322
    },
    {
        "transcript": "OCFSD-2-5-Practice-Write-the-Book-Class",
        "title": "Practice: Write the Book Class",
        "lectureID": 21,
        "video": "OCFSD-2-5-Practice-Write-the-Book-Class.mp4",
        "duration": 29.396999999999998
    },
    {
        "transcript": "OCFSD-2-6-Making-Two-Classes-Work-Together",
        "title": "Making Two Classes Work Together",
        "lectureID": 22,
        "video": "OCFSD-2-6-Making-Two-Classes-Work-Together.mp4",
        "duration": 96.897000000000006
    },
    {
        "transcript": "OCFSD-2-7-More-Property-Attributes-Strong-and-Weak",
        "title": "More Property Attributes: Strong and Weak",
        "lectureID": 23,
        "video": "OCFSD-2-7-More-Property-Attributes-Strong-and-Weak.mp4",
        "duration": 62.253
    },
    {
        "transcript": "OCFSD-2-8-Practice-Build-on-the-Book-Project",
        "title": "Practice: Build on the Book Project",
        "lectureID": 24,
        "video": "OCFSD-2-8-Practice-Build-on-the-Book-Project.mp4",
        "duration": 21.084
    },
    {
        "transcript": "OCFSD-2-9-Lesson-2-Outro",
        "title": "Lesson 2 Outro",
        "lectureID": 25,
        "video": "OCFSD-2-9-Lesson-2-Outro.mp4",
        "duration": 15.349
    }
]