[
    {
        "transcript": "UIKF-3-1-Introducing-Delegates",
        "title": "Introducing Delegates",
        "lectureID": 40,
        "video": "UIKF-3-1-Introducing-Delegates.mp4",
        "duration": 24.637
    },
    {
        "transcript": "UIKF-3-2-Reuse-with-Customizaton",
        "title": "Reuse with Customizaton",
        "lectureID": 41,
        "video": "UIKF-3-2-Reuse-with-Customizaton.mp4",
        "duration": 92.763999999999996
    },
    {
        "transcript": "UIKF-3-3-Compare-and-Contrast-Custom-Text-Fields",
        "title": "Compare and Contrast Custom Text Fields",
        "lectureID": 42,
        "video": "UIKF-3-3-Compare-and-Contrast-Custom-Text-Fields.mp4",
        "duration": 28.838333333333335
    },
    {
        "transcript": "UIKF-3-4-Introducing-Protocols",
        "title": "Introducing Protocols",
        "lectureID": 43,
        "video": "UIKF-3-4-Introducing-Protocols.mp4",
        "duration": 60.326000000000001
    },
    {
        "transcript": "UIKF-3-5-Quiz-Text-Field-Code-Review",
        "title": "Quiz: Text Field Code Review",
        "lectureID": 44,
        "video": "UIKF-3-5-Quiz-Text-Field-Code-Review.mp4",
        "duration": 102.30666666666667
    },
    {
        "transcript": "UIKF-3-6-Diagramming-the-Text-Field-App",
        "title": "Diagramming the Text Field App",
        "lectureID": 45,
        "video": "UIKF-3-6-Diagramming-the-Text-Field-App.mp4",
        "duration": 147.86333333333334
    },
    {
        "transcript": "UIKF-3-7-A-Look-at-the-Other-Two-Delegates-Intro",
        "title": "A Look at the Other Two Delegates Intro",
        "lectureID": 46,
        "video": "UIKF-3-7-A-Look-at-the-Other-Two-Delegates-Intro.mp4",
        "duration": 36.130000000000003
    },
    {
        "transcript": "UIKF-3-8-A-Look-at-the-Other-Two-Delegates",
        "title": "A Look at the Other Two Delegates",
        "lectureID": 47,
        "video": "UIKF-3-8-A-Look-at-the-Other-Two-Delegates.mp4",
        "duration": 178.60666666666665
    },
    {
        "transcript": "UIKF-3-9-Creating-a-Random-Color-Delegate",
        "title": "Creating a Random Color Delegate",
        "lectureID": 48,
        "video": "UIKF-3-9-Creating-a-Random-Color-Delegate.mp4",
        "duration": 80.851666666666674
    },
    {
        "transcript": "UIKF-3-10-Preparing-for-the-Challenge-Apps",
        "title": "Preparing for the Challenge Apps",
        "lectureID": 49,
        "video": "UIKF-3-10-Preparing-for-the-Challenge-Apps.mp4",
        "duration": 130.91333333333333
    },
    {
        "transcript": "UIKF-3-11-Next-Up-MemeMe-v1",
        "title": "Next Up MemeMe v1",
        "lectureID": 50,
        "video": "UIKF-3-11-Next-Up-MemeMe-v1.mp4",
        "duration": 36.200000000000003
    }
]